{
  "project_info": {
    "project_number": "253816934130",
    "project_id": "animalesapp-2a73a",
    "storage_bucket": "animalesapp-2a73a.appspot.com"
  },
  "client": [
    {
      "client_info": {
        "mobilesdk_app_id": "1:253816934130:android:459634d71a959cc4e5ca6b",
        "android_client_info": {
          "package_name": "com.example.flutter_animales"
        }
      },
      "oauth_client": [
        {
          "client_id": "253816934130-6cvfs4fehhuqudo457cmsbgo2809888r.apps.googleusercontent.com",
          "client_type": 1,
          "android_info": {
            "package_name": "com.example.flutter_animales",
            "certificate_hash": "f2a41e16fc170b60386df5aaa946d3ad5633c984"
          }
        },
        {
          "client_id": "253816934130-a3knig45hqdk6ohs965abu04jtuekbrh.apps.googleusercontent.com",
          "client_type": 3
        }
      ],
      "api_key": [
        {
          "current_key": "AIzaSyAf_eXnPLW04EYpwEmM0-KOVSZQ25O_nCA"
        }
      ],
      "services": {
        "appinvite_service": {
          "other_platform_oauth_client": [
            {
              "client_id": "253816934130-a3knig45hqdk6ohs965abu04jtuekbrh.apps.googleusercontent.com",
              "client_type": 3
            }
          ]
        }
      }
    }
  ],
  "configuration_version": "1"
}